GFORTRAN module version '6' created from examples/fmvp_omp.f90 on Sat Feb  6 17:25:23 2016
MD5:56dc4151fca3ba1835ffc6e2a155446b -- If you edit this, you'll get what you deserve.

(() () () () () () () () () () () () () () () () () () () () () () () ()
() () ())

()

()

()

()

()

(2 'elapsed_time' 'util' 'elapsed_time' 1 ((PROCEDURE UNKNOWN-INTENT
MODULE-PROC DECL UNKNOWN 0 0 FUNCTION IMPLICIT_PURE) (REAL 8 0 0 REAL ())
3 0 (4 5) () 6 () () () 0 0)
7 'util' 'util' 'util' 1 ((MODULE UNKNOWN-INTENT UNKNOWN-PROC UNKNOWN
UNKNOWN 0 0) (UNKNOWN 0 0 0 UNKNOWN ()) 0 0 () () 0 () () () 0 0)
4 'c1' '' 'c1' 3 ((VARIABLE IN UNKNOWN-PROC UNKNOWN UNKNOWN 0 0 DUMMY) (
INTEGER 4 0 0 INTEGER ()) 0 0 () () 0 () () () 0 0)
5 'c2' '' 'c2' 3 ((VARIABLE IN UNKNOWN-PROC UNKNOWN UNKNOWN 0 0 DUMMY) (
INTEGER 4 0 0 INTEGER ()) 0 0 () () 0 () () () 0 0)
6 'et' '' 'et' 3 ((VARIABLE UNKNOWN-INTENT UNKNOWN-PROC UNKNOWN UNKNOWN
0 0 RESULT) (REAL 8 0 0 REAL ()) 0 0 () () 0 () () () 0 0)
)

('elapsed_time' 0 2 'util' 0 7)
